<?xml version="1.0" encoding="UTF-8"?>
<!DOCTYPE X3D PUBLIC "ISO//Web3D//DTD X3D 3.0//EN" "http://www.web3d.org/specifications/x3d-3.0.dtd">
<X3D version='3.0'>
	<Scene>
    <!-- a proto containing the shape and the chasers -->
    <!-- thus we only have to create one dynamic node in the script -->
    <ProtoDeclare name='CustomCone'>
      <ProtoInterface>
				<field name='id' type='SFString' accessType='inputOutput' value='box' />
				<field name='name' type='SFString' accessType='inputOutput' value='box' />
        <field name='label' type='MFString' accessType='inputOutput' value='&quot;&quot;' />
				<field name='color' type='SFColor' accessType='inputOutput' value='0.5 0.0 0' />
				<field name='emissivecolor' type='SFColor' accessType='inputOutput'  />
				<field name='position' type='SFVec3f' accessType='inputOutput' value='0 0 0' />
				<field name='size' type='SFVec3f' accessType='inputOutput' value='1 1 1' />
				<field name='transparency' type='SFFloat' accessType='inputOutput' value='0' />
				<field name='rotation' type='SFRotation' accessType='inputOutput' value='0 1 0 0' />
				
				<field name='initialposition' type='SFVec3f' accessType='initializeOnly' value='0 0 0' />
				<field name='centerattraction' type='SFFloat' accessType='inputOutput' value='0.0' /> 
				<field name='displacement' type='SFVec3f' accessType='inputOutput' value='0 0 0' /> 
				<field name='layout' type='SFString' accessType='inputOutput' value='' /> 
				<field name='usedefaultlayout' type='SFBool' accessType='inputOutput' value='true' /> 
			</ProtoInterface>
      <ProtoBody>
				<Transform DEF="node">
					<IS>
						<connect nodeField='scale' protoField='size'/>
					</IS>
					<Transform DEF="decoration_handle">
						<Transform>
							<IS>
								<connect nodeField='rotation' protoField='rotation'/>
							</IS>	      
							<Shape>
								<Appearance DEF='app_font'>
									<Material>
										<IS>
											<connect nodeField='diffuseColor' protoField='color'/>
											<connect nodeField='emissiveColor' protoField='emissivecolor'/>
											<connect nodeField='transparency' protoField='transparency'/>
										</IS>
									</Material>
								</Appearance>
								<Cone bottomradius="0.5" height="1"/>
							</Shape>
						</Transform>
						<Transform translation="0 -2 0">
							<Billboard axisOfRotation="0 0 0">
								<Shape>
									<Appearance>
										<Material>
											<IS>
												<connect nodeField='diffuseColor' protoField='color'/>
												<connect nodeField='emissiveColor' protoField='emissivecolor'/>
											</IS>
										</Material>
									</Appearance>
									<Text>
										<IS>
											<connect nodeField='string' protoField='label'/>
										</IS>
										<FontStyle justify="&quot;MIDDLE&quot;"/>
									</Text>
								</Shape>
							</Billboard>
						</Transform>  
					</Transform>
				</Transform>
				<PositionChaser3D DEF="pc" duration='0.01'>
					<IS>
						<connect nodeField='initialDestination' protoField='position'/>
						<connect nodeField='set_destination' protoField='position'/>
						<connect nodeField='initialValue' protoField='initialposition'/>
					</IS>
				</PositionChaser3D>
				<ROUTE fromNode="pc" fromField="value_changed" toField="set_translation" toNode="node"/>
      </ProtoBody>
    </ProtoDeclare>
	</Scene>
</X3D>
