<?xml version="1.0" encoding="UTF-8"?>
<!DOCTYPE X3D PUBLIC "ISO//Web3D//DTD X3D 3.0//EN" "http://www.web3d.org/specifications/x3d-3.0.dtd">
<X3D version='3.0'>
	<Scene>
		<ProtoDeclare name="dummyedge">
			<ProtoInterface>
				<field accessType="inputOutput" name="source" type="SFVec3f" value="0 0 0" /> 				
				<field accessType="inputOutput" name="sourcename" type="SFString" value="" /> 		
				<field accessType="inputOutput" name="name" type="SFString" value="arrow" /> 						
				<field accessType="inputOutput" name="id" type="SFString" value="arrow" /> 				
				<field accessType="inputOutput" name="target" type="SFVec3f" value="0 1 0"/>
				<field accessType="inputOutput" name="targetname" type="SFString" value="" /> 				
				<field accessType="inputOutput" name="linecolor" type="SFColor" value="0 0 1"/>
				<field accessType="inputOutput" name="arrowheadcolor" type="SFColor" value="0 0 1"/>
				<field accessType="inputOnly" name="actualize" type="SFString" value="0"/>
				<field accessType="outputOnly" name="scale" type="SFVec3f" value="1 1 1"/>
				<field accessType="outputOnly" name="rotation" type="SFRotation" value="1 0 -1 0.0" />
				<field accessType="outputOnly" name="translation" type="SFVec3f" value="0 0 0"/>
			</ProtoInterface>  
			<ProtoBody>


			</ProtoBody>
		</ProtoDeclare>   
	</Scene>
</X3D>
