<?xml version="1.0" encoding="UTF-8"?>
<!DOCTYPE X3D PUBLIC "ISO//Web3D//DTD X3D 3.0//EN" "http://www.web3d.org/specifications/x3d-3.0.dtd">
<X3D version='3.0'>
	<Scene>
    <!-- a proto containing the shape and the chasers -->
    <!-- thus we only have to create one dynamic node in the script -->
    <ProtoDeclare name='DummyNode'>
      <ProtoInterface>
				<field name='name' type='SFString' accessType='inputOutput' value='box' />
        <field name='id' type='SFString' accessType='inputOutput' value='box' />
				<field name='label' type='MFString' accessType='inputOutput' value='&quot;&quot;' />
				<field name='color' type='SFColor' accessType='inputOutput' value='0.5,0.0,0' />
				<field name='emissivecolor' type='SFColor' accessType='inputOutput' value='0.0,0.0,0' />
				<field name='position' type='SFVec3f' accessType='inputOutput' value='0,0,0' />
				<field name='targetposition' type='SFVec3f' accessType='inputOutput' value='0,0,0' />
				<field name='size' type='SFVec3f' accessType='inputOutput' value='1,1,1' />
				<field name='layout' type='SFString' accessType='inputOutput' value='' />
				<field name='usedefaultlayout' type='SFBool' accessType='inputOutput' value='true' />
				<field name='displacement' type='SFVec3f' accessType='inputOutput' value='0,0,0' />
				<field name='centerattraction' type='SFFloat' accessType='inputOutput' value='0.0' />
      </ProtoInterface>
      <ProtoBody>
				
      </ProtoBody>
    </ProtoDeclare>
	</Scene>
</X3D>
