<?xml version="1.0" encoding="UTF-8"?>
<!DOCTYPE X3D PUBLIC "ISO//Web3D//DTD X3D 3.1//EN" "http://www.web3d.org/specifications/x3d-3.1.dtd">
<X3D profile='Immersive' version='3.1' xmlns:xsd='http://www.w3.org/2001/XMLSchema-instance' xsd:noNamespaceSchemaLocation='http://www.web3d.org/specifications/x3d-3.1.xsd'>
  <head>
    <meta content='HeadsUpDisplayPrototype.x3d' name='title'/>
    <meta content='Demonstrates use of a ProximitySensor in building a Heads Up Display (HUD)' name='description'/>
    <meta content='A simple heads-up display (HUD) Prototype manages the display of a HUD and maintains its position on the screen. Changes to fieldOfView (in Viewpoint node) will change screen position Fields: hudSize Size of HUD (initializeOnly - SFVec3f) default="1 1 .01" hudColor Color of HUD (inputOutput - SFColor) default="1 1 1" screenOffset Offset of HUD. This field positions the HUD on the display screen (inputOutput - SFVec3f) default="0 0 0" children Geometry to be placed on the HUD. Origin is center of HUD. (inputOutput - MFNode) default = [] position_changed Current viewer location (outputOnly - SFVec3f) orientation_changed Current viewer orientation (outputOnly - SFRotation)' name='documentation'/>
    <meta content='Leonard Daly and Don Brutzman (modified by Jan Schilbach)' name='creator'/>
    <meta content='15 July 2006' name='created'/>
    <meta content='6 March 2010' name='modified'/>
    <meta content='HeadsUpDisplayExample.x3d' name='reference'/>
    <meta content='http://X3dGraphics.com' name='reference'/>
    <meta content='http://www.web3d.org/x3d/content/examples/X3dResources.html' name='reference'/>
    <meta content='Copyright 2006, Daly Realism and Don Brutzman' name='rights'/>
    <meta content='X3D book, X3D graphics, X3D-Edit, http://www.x3dGraphics.com' name='subject'/>
    <meta content='http://X3dGraphics.com/examples/X3dForWebAuthors/Chapter14-Prototypes/HeadsUpDisplayPrototype.x3d' name='identifier'/>
    <meta content='X3D-Edit 3.3, https://savage.nps.edu/X3D-Edit' name='generator'/>
  </head>
  <Scene>
    <ProtoDeclare appinfo='Heads-up display (HUD) keeps child geometry aligned on screen in a consistent location' name='HeadsUpDisplay'>
      <ProtoInterface>
        <field accessType='inputOutput' appinfo='offset position for HUD relative to current view location, default 10 0 -5' name='screenOffset' type='SFVec3f' value='-3.6 2 -5'/>
        <field accessType='inputOutput' appinfo='name to get node' name='name' type='SFString' value='hud'/>
        <field accessType='inputOutput' appinfo='id to get node' name='id' type='SFString' value='hud'/>
        <field accessType='inputOutput' appinfo='Text of the HUD' name='text' type='MFString' value=''/>
        <field accessType='inputOutput' appinfo='Color of the HUD text' name='color' type='SFColor' value='1.0 1.0 1.0'/>
        <field accessType='outputOnly' appinfo='HUD position update (in world coordinates) relative to original location' name='position_changed' type='SFVec3f'/>
        <field accessType='outputOnly' appinfo='HUD orientation update relative to original location' name='orientation_changed' type='SFRotation'/>
				<field name='usedefaultlayout' type='SFBool' accessType='inputOutput' value='true' />
      </ProtoInterface>
      <ProtoBody>
        <Group>
          <Transform DEF='HudContainer'>
            <Transform>
              <IS>
                <connect nodeField='translation' protoField='screenOffset'/>
              </IS>
              <Group>
								<TouchSensor/>
								<Shape>
									<Text solid='false'>
										<IS>
											<connect nodeField='string' protoField='text'/>
										</IS>
										<FontStyle justify='"BEGIN" "BEGIN"' size='0.1'/>
									</Text> 
									<Appearance>
										<Material>
											<IS>
												<connect nodeField='diffuseColor' protoField='color'/>
												<connect nodeField='emissiveColor' protoField='color'/>
											</IS>
										</Material>
									</Appearance>
								</Shape>
              </Group>
            </Transform>
          </Transform>
          <ProximitySensor DEF='HereIAm' enabled='true' size='10000 10000 10000'>
            <IS>
              <connect nodeField='position_changed' protoField='position_changed'/>
              <connect nodeField='orientation_changed' protoField='orientation_changed'/>
            </IS>
          </ProximitySensor>
          <ROUTE fromField='orientation_changed' fromNode='HereIAm' toField='rotation' toNode='HudContainer'/>
          <ROUTE fromField='position_changed' fromNode='HereIAm' toField='translation' toNode='HudContainer'/>
        </Group>
      </ProtoBody>
    </ProtoDeclare>

  </Scene>
</X3D>
